{
  "navigation" : {
    "Index": {
      "title": "О компании",
      "href": "/",
      "subitems":  {
        "Catalog item 1": {
          "title" : "Сертификаты",
          "href" : "#",
          "subsubitems": false
        },
        "Catalog item 2": {
          "title" : "Преимущества",
          "href" : "#",
          "subsubitems": false
        },
        "Catalog item 3": {
          "title" : "Отзывы",
          "href" : "#",
          "subsubitems": false
        },
        "Catalog item 4": {
          "title" : "Важно знать",
          "href" : "#",
          "subsubitems": false
        },
        "Catalog item 5": {
          "title" : "Вопрос-ответ",
          "href" : "#",
          "subsubitems": false
        }
      }
    },
    "Catalog" : {
      "title": "Выбираем потолок",
      "href": "#",
      "subitems": {
        "Catalog item 1": {
          "title" : "Тип помещений",
          "href" : "#",
          "subsubitems": {
            "Catalog item 1": {
              "title" : "В спальне",
              "href" : "#"
            },
            "Catalog item 2": {
              "title" : "На кухню",
              "href" : "#"
            },
            "Catalog item 3": {
              "title" : "В детскую",
              "href" : "#"
            },
            "Catalog item 4": {
              "title" : "В гостиной",
              "href" : "#"
            },
            "Catalog item 5": {
              "title" : "В коридоре",
              "href" : "#"
            },
            "Catalog item 6": {
              "title" : "В ванную",
              "href" : "#"
            }
          }
        },
        "Catalog item 2": {
          "title" : "Фактура",
          "href" : "#",
          "subsubitems": {
            "Catalog item 1": {
              "title" : "Сатиновые",
              "href" : "#"
            },
            "Catalog item 2": {
              "title" : "Матовые",
              "href" : "#"
            },
            "Catalog item 3": {
              "title" : "Глянцевые",
              "href" : "#"
            },
            "Catalog item 4": {
              "title" : "Фактурные",
              "href" : "#"
            }
          }
        },
        "Catalog item 3": {
          "title" : "Эксклюзивные потолки",
          "href" : "#",
          "subsubitems": {
            "Catalog item 1": {
              "title" : "Звездное небо",
              "href" : "#"
            },
            "Catalog item 2": {
              "title" : "Парящий потолок",
              "href" : "#"
            },
            "Catalog item 3": {
              "title" : "Спайка полотен",
              "href" : "#"
            },
            "Catalog item 4": {
              "title" : "Многоуровневые",
              "href" : "#"
            }
          }
        }
      }
    },
    "Catalog2" : {
      "title": "услуги",
      "href": "#",
      "subitems": {
        "Catalog item 1": {
          "title" : "Натяжные потолки",
          "href" : "#",
          "subsubitems": false
        },
        "Catalog item 2": {
          "title" : "Потолки под ключ",
          "href" : "#",
          "subsubitems": false
        },
        "Catalog item 22": {
          "title" : "Фотопечать",
          "href" : "#",
          "subsubitems": false
        },
        "Catalog item 23": {
          "title" : "Светильники",
          "href" : "#",
          "subsubitems": false
        },
        "Catalog item 3": {
          "title" : "Цены на потолки",
          "href" : "#",
          "subsubitems": false
        }
      }
    },
    "About" : {
      "title": "Цены",
      "href": "#",
      "subitems":  {
        "Catalog item 1": {
          "title" : "Цены на потолки",
          "href" : "#",
          "subsubitems": false
        },
        "Catalog item 2": {
          "title" : "Цены на свет",
          "href" : "#",
          "subsubitems": false
        },
        "Catalog item 3": {
          "title" : "Акции",
          "href" : "#",
          "subsubitems": false
        }
      }
    },
    "About2" : {
      "title": "Галлерея",
      "href": "#",
      "subitems":  {
        "Catalog item 1": {
          "title" : "Готовые решения",
          "href" : "#",
          "subsubitems": false
        },
        "Catalog item 2": {
          "title" : "Фото потолков",
          "href" : "#",
          "subsubitems": false
        },
        "Catalog item 3": {
          "title" : "Фотопечать",
          "href" : "#",
          "subsubitems": false
        }
      }
    },
    "About3" : {
      "title": "Контакты",
      "href": "#",
      "subitems": false
    }
  }
}
